# Blender 3.1.0
# www.blender.org
mtllib sr-1-battlemap-boxes_1.mtl
o stage11
v -3614.000000 185.000488 -1760.000000
v -3614.000000 185.000366 -1575.000000
v -3614.000000 370.000458 -1575.000000
v -3614.000000 370.000488 -1760.000000
v -3614.000000 185.000488 -1760.000000
v -3614.000000 370.000458 -1575.000000
v 834.000000 0.000278 -1112.000000
v 834.000000 0.000301 -1204.000000
v 834.000000 185.000305 -1204.000000
v 834.000000 370.000275 -1204.000000
v 834.000000 370.000244 -1018.999939
v 834.000000 185.000305 -1204.000000
v 834.000000 370.000244 -1018.999939
v 834.000000 185.000275 -1019.000000
v 834.000000 185.000305 -1204.000000
v 834.000000 185.000366 -1575.000000
v 834.000000 0.000417 -1667.000000
v 834.000000 185.000488 -1760.000000
v 834.000000 370.000519 -1945.000000
v 834.000000 370.000488 -1760.000000
v 834.000000 185.000519 -1945.000000
v 834.000000 370.000488 -1760.000000
v 834.000000 185.000488 -1760.000000
v 834.000000 185.000519 -1945.000000
v 834.000000 185.000275 -1019.000000
v 834.000000 185.000244 -834.000000
v 834.000000 0.000255 -1019.000000
v 834.000000 185.000244 -834.000000
v 834.000000 0.000209 -834.000000
v 834.000000 0.000255 -1019.000000
v -3614.000000 185.000488 -1760.000000
v -3614.000000 0.000418 -1668.000000
v -3614.000000 185.000366 -1575.000000
v 834.000000 185.000519 -1945.000000
v 834.000000 185.000488 -1760.000000
v 834.000000 0.000487 -1945.000000
v 834.000000 185.000488 -1760.000000
v 834.000000 0.000441 -1760.000000
v 834.000000 0.000487 -1945.000000
v -3614.000000 370.000305 -1390.000000
v -3614.000000 370.000458 -1575.000000
v -3614.000000 185.000336 -1390.000000
v -3614.000000 370.000458 -1575.000000
v -3614.000000 185.000366 -1575.000000
v -3614.000000 185.000336 -1390.000000
v -3614.000000 370.000488 -1760.000000
v -3614.000000 370.000519 -1945.000000
v -3614.000000 185.000488 -1760.000000
v -3614.000000 370.000519 -1945.000000
v -3614.000000 185.000519 -1945.000000
v -3614.000000 185.000488 -1760.000000
v -3614.000000 185.000336 -1390.000000
v -3614.000000 185.000366 -1575.000000
v -3614.000000 0.000348 -1390.000000
v -3614.000000 185.000366 -1575.000000
v -3614.000000 0.000394 -1575.000000
v -3614.000000 0.000348 -1390.000000
v -3614.000000 185.000488 -1760.000000
v -3614.000000 185.000519 -1945.000000
v -3614.000000 0.000441 -1760.000000
v -3614.000000 185.000519 -1945.000000
v -3614.000000 0.000487 -1945.000000
v -3614.000000 0.000441 -1760.000000
v 834.000000 185.000305 -1204.000000
v 834.000000 185.000275 -1019.000000
v 834.000000 0.000278 -1112.000000
v 834.000000 0.000441 -1760.000000
v 834.000000 185.000488 -1760.000000
v 834.000000 0.000417 -1667.000000
v -3614.000000 0.000394 -1575.000000
v -3614.000000 185.000366 -1575.000000
v -3614.000000 0.000418 -1668.000000
v -3614.000000 185.000488 -1760.000000
v -3614.000000 0.000441 -1760.000000
v -3614.000000 0.000418 -1668.000000
v 834.000000 0.000394 -1575.000000
v 834.000000 0.000417 -1667.000000
v 834.000000 185.000366 -1575.000000
v 834.000000 0.000348 -1390.000000
v 834.000000 185.000336 -1390.000000
v 834.000000 0.000301 -1204.000000
v 834.000000 185.000336 -1390.000000
v 834.000000 185.000305 -1204.000000
v 834.000000 0.000301 -1204.000000
v 648.000000 185.000244 -834.000000
v 648.000000 0.000209 -834.000000
v 834.000000 0.000209 -834.000000
v 834.000000 185.000244 -834.000000
v 648.000000 185.000244 -834.000000
v 834.000000 0.000209 -834.000000
v 463.000000 185.000488 -1760.000000
v 556.000000 0.000441 -1760.000000
v 648.000000 185.000488 -1760.000000
v -3243.000000 185.000366 -1575.000000
v -3243.000000 0.000394 -1575.000000
v -3058.000000 0.000394 -1575.000000
v -3058.000000 185.000366 -1575.000000
v -3243.000000 185.000366 -1575.000000
v -3058.000000 0.000394 -1575.000000
v -3614.000000 185.000336 -1390.000000
v -3614.000000 0.000348 -1390.000000
v -3428.000000 0.000348 -1390.000000
v -3428.000000 185.000336 -1390.000000
v -3614.000000 185.000336 -1390.000000
v -3428.000000 0.000348 -1390.000000
v 834.000000 0.000255 -1019.000000
v 834.000000 0.000278 -1112.000000
v 834.000000 185.000275 -1019.000000
v 834.000000 185.000366 -1575.000000
v 648.000000 185.000366 -1575.000000
v 834.000000 0.000394 -1575.000000
v 648.000000 185.000366 -1575.000000
v 648.000000 0.000394 -1575.000000
v 834.000000 0.000394 -1575.000000
v -3428.000000 185.000519 -1945.000000
v -3428.000000 0.000487 -1945.000000
v -3614.000000 0.000487 -1945.000000
v -3614.000000 185.000519 -1945.000000
v -3428.000000 185.000519 -1945.000000
v -3614.000000 0.000487 -1945.000000
v 648.000000 0.000441 -1760.000000
v 648.000000 185.000488 -1760.000000
v 556.000000 0.000441 -1760.000000
v 648.000000 185.000488 -1760.000000
v 648.000000 0.000441 -1760.000000
v 648.000000 0.000417 -1667.000000
v 648.000000 0.000394 -1575.000000
v 648.000000 185.000366 -1575.000000
v 648.000000 0.000417 -1667.000000
v -3243.000000 185.000336 -1390.000000
v -3243.000000 0.000348 -1390.000000
v -3243.000000 0.000394 -1575.000000
v -3243.000000 185.000366 -1575.000000
v -3243.000000 185.000336 -1390.000000
v -3243.000000 0.000394 -1575.000000
v -3428.000000 370.000305 -1390.000000
v -3428.000000 185.000336 -1390.000000
v -3428.000000 185.000366 -1575.000000
v -3428.000000 370.000458 -1575.000000
v -3428.000000 370.000305 -1390.000000
v -3428.000000 185.000366 -1575.000000
v -3243.000000 370.000488 -1760.000000
v -3243.000000 185.000488 -1760.000000
v -3428.000000 185.000488 -1760.000000
v -3428.000000 370.000488 -1760.000000
v -3243.000000 370.000488 -1760.000000
v -3428.000000 185.000488 -1760.000000
v 834.000000 185.000244 -834.000000
v 834.000000 185.000275 -1019.000000
v 648.000000 185.000275 -1019.000000
v 648.000000 185.000244 -834.000000
v 834.000000 185.000244 -834.000000
v 648.000000 185.000275 -1019.000000
v 834.000000 185.000366 -1575.000000
v 834.000000 185.000488 -1760.000000
v 648.000000 185.000488 -1760.000000
v 648.000000 185.000366 -1575.000000
v 834.000000 185.000366 -1575.000000
v 648.000000 185.000488 -1760.000000
v 834.000000 370.000519 -1945.000000
v 834.000000 185.000519 -1945.000000
v 648.000000 185.000519 -1945.000000
v 648.000000 0.000487 -1945.000000
v 556.000000 0.000487 -1945.000000
v 648.000000 185.000519 -1945.000000
v 648.000000 370.000519 -1945.000000
v 834.000000 370.000519 -1945.000000
v 648.000000 185.000519 -1945.000000
v -3614.000000 370.000305 -1390.000000
v -3614.000000 185.000336 -1390.000000
v -3428.000000 185.000336 -1390.000000
v -3428.000000 370.000305 -1390.000000
v -3614.000000 370.000305 -1390.000000
v -3428.000000 185.000336 -1390.000000
v -3428.000000 185.000336 -1390.000000
v -3336.000000 0.000348 -1390.000000
v -3243.000000 185.000336 -1390.000000
v -3428.000000 370.000458 -1575.000000
v -3428.000000 185.000366 -1575.000000
v -3243.000000 185.000366 -1575.000000
v -3243.000000 370.000458 -1575.000000
v -3428.000000 370.000458 -1575.000000
v -3243.000000 185.000366 -1575.000000
v 648.000000 370.000244 -1018.999939
v 648.000000 185.000275 -1019.000000
v 834.000000 185.000275 -1019.000000
v 834.000000 370.000244 -1018.999939
v 648.000000 370.000244 -1018.999939
v 834.000000 185.000275 -1019.000000
v 648.000000 370.000488 -1760.000000
v 648.000000 185.000488 -1760.000000
v 834.000000 185.000488 -1760.000000
v 834.000000 370.000488 -1760.000000
v 648.000000 370.000488 -1760.000000
v 834.000000 185.000488 -1760.000000
v 648.000000 370.000275 -1204.000000
v 834.000000 370.000275 -1204.000000
v 648.000000 185.000305 -1204.000000
v 834.000000 370.000275 -1204.000000
v 834.000000 185.000305 -1204.000000
v 648.000000 185.000305 -1204.000000
v 648.000000 185.000336 -1390.000000
v 834.000000 185.000336 -1390.000000
v 648.000000 0.000348 -1390.000000
v 834.000000 185.000336 -1390.000000
v 834.000000 0.000348 -1390.000000
v 648.000000 0.000348 -1390.000000
v 648.000000 185.000519 -1945.000000
v 834.000000 185.000519 -1945.000000
v 648.000000 0.000487 -1945.000000
v 834.000000 185.000519 -1945.000000
v 834.000000 0.000487 -1945.000000
v 648.000000 0.000487 -1945.000000
v 648.000000 185.000275 -1019.000000
v 648.000000 0.000255 -1019.000000
v 648.000000 0.000209 -834.000000
v 648.000000 185.000244 -834.000000
v 648.000000 185.000275 -1019.000000
v 648.000000 0.000209 -834.000000
v 648.000000 185.000336 -1390.000000
v 648.000000 0.000348 -1390.000000
v 648.000000 0.000301 -1204.000000
v 648.000000 185.000305 -1204.000000
v 648.000000 185.000336 -1390.000000
v 648.000000 0.000301 -1204.000000
v -3243.000000 185.000366 -1575.000000
v -3428.000000 185.000366 -1575.000000
v -3428.000000 185.000336 -1390.000000
v -3243.000000 185.000336 -1390.000000
v -3243.000000 185.000366 -1575.000000
v -3428.000000 185.000336 -1390.000000
v -3243.000000 185.000519 -1945.000000
v -3428.000000 185.000519 -1945.000000
v -3428.000000 185.000488 -1760.000000
v -3243.000000 185.000488 -1760.000000
v -3243.000000 185.000519 -1945.000000
v -3428.000000 185.000488 -1760.000000
v 648.000000 185.000488 -1760.000000
v 648.000000 0.000417 -1667.000000
v 648.000000 185.000366 -1575.000000
v 463.000000 0.000441 -1760.000000
v 556.000000 0.000441 -1760.000000
v 463.000000 185.000488 -1760.000000
v -3243.000000 185.000519 -1945.000000
v -3058.000000 185.000519 -1945.000000
v -3243.000000 0.000487 -1945.000000
v -3058.000000 185.000519 -1945.000000
v -3058.000000 0.000487 -1945.000000
v -3243.000000 0.000487 -1945.000000
v -3428.000000 370.000519 -1945.000000
v -3428.000000 185.000519 -1945.000000
v -3614.000000 185.000519 -1945.000000
v -3614.000000 370.000519 -1945.000000
v -3428.000000 370.000519 -1945.000000
v -3614.000000 185.000519 -1945.000000
v 648.000000 0.000255 -1019.000000
v 648.000000 185.000275 -1019.000000
v 556.000000 0.000255 -1019.000000
v 648.000000 185.000275 -1019.000000
v 463.000000 185.000275 -1019.000000
v 556.000000 0.000255 -1019.000000
v 463.000000 0.000301 -1204.000000
v 463.000000 185.000305 -1204.000000
v 556.000000 0.000301 -1204.000000
v 463.000000 185.000305 -1204.000000
v 648.000000 185.000305 -1204.000000
v 556.000000 0.000301 -1204.000000
v -3243.000000 0.000348 -1390.000000
v -3243.000000 185.000336 -1390.000000
v -3336.000000 0.000348 -1390.000000
v -3428.000000 185.000336 -1390.000000
v -3428.000000 0.000348 -1390.000000
v -3336.000000 0.000348 -1390.000000
v 463.000000 0.000487 -1945.000000
v 463.000000 185.000519 -1945.000000
v 556.000000 0.000487 -1945.000000
v -3428.000000 185.000519 -1945.000000
v -3243.000000 185.000519 -1945.000000
v -3336.000000 0.000487 -1945.000000
v -3243.000000 185.000519 -1945.000000
v -3243.000000 0.000487 -1945.000000
v -3336.000000 0.000487 -1945.000000
v -3428.000000 0.000487 -1945.000000
v -3428.000000 185.000519 -1945.000000
v -3336.000000 0.000487 -1945.000000
v 463.000000 185.000305 -1204.000000
v 463.000000 0.000278 -1112.000000
v 463.000000 185.000275 -1019.000000
v 648.000000 370.000244 -1018.999939
v 648.000000 370.000275 -1204.000000
v 648.000000 185.000275 -1019.000000
v 648.000000 370.000275 -1204.000000
v 648.000000 185.000305 -1204.000000
v 648.000000 185.000275 -1019.000000
v 648.000000 370.000488 -1760.000000
v 648.000000 370.000519 -1945.000000
v 648.000000 185.000488 -1760.000000
v 648.000000 370.000519 -1945.000000
v 648.000000 185.000519 -1945.000000
v 648.000000 185.000488 -1760.000000
v 463.000000 185.000488 -1760.000000
v 463.000000 185.000519 -1945.000000
v 463.000000 0.000441 -1760.000000
v 463.000000 185.000519 -1945.000000
v 463.000000 0.000487 -1945.000000
v 463.000000 0.000441 -1760.000000
v -3058.000000 185.000519 -1945.000000
v -3058.000000 185.000488 -1760.000000
v -3058.000000 0.000487 -1945.000000
v -3058.000000 185.000488 -1760.000000
v -3058.000000 0.000441 -1760.000000
v -3058.000000 0.000487 -1945.000000
v -3428.000000 370.000488 -1760.000000
v -3428.000000 185.000488 -1760.000000
v -3428.000000 185.000519 -1945.000000
v -3428.000000 370.000519 -1945.000000
v -3428.000000 370.000488 -1760.000000
v -3428.000000 185.000519 -1945.000000
v 463.000000 0.000255 -1019.000000
v 556.000000 0.000255 -1019.000000
v 463.000000 185.000275 -1019.000000
v 648.000000 0.000301 -1204.000000
v 556.000000 0.000301 -1204.000000
v 648.000000 185.000305 -1204.000000
v 648.000000 185.000519 -1945.000000
v 556.000000 0.000487 -1945.000000
v 463.000000 185.000519 -1945.000000
v 463.000000 0.000255 -1019.000000
v 463.000000 185.000275 -1019.000000
v 463.000000 0.000278 -1112.000000
v 463.000000 185.000305 -1204.000000
v 463.000000 0.000301 -1204.000000
v 463.000000 0.000278 -1112.000000
v -3243.000000 370.000488 -1760.000000
v -3243.000000 370.000458 -1575.000000
v -3243.000000 185.000488 -1760.000000
v -3243.000000 370.000458 -1575.000000
v -3243.000000 185.000366 -1575.000000
v -3243.000000 185.000488 -1760.000000
v 834.000000 185.000336 -1390.000000
v 648.000000 185.000336 -1390.000000
v 834.000000 185.000305 -1204.000000
v 648.000000 185.000336 -1390.000000
v 648.000000 185.000305 -1204.000000
v 834.000000 185.000305 -1204.000000
v 834.000000 370.000244 -1018.999939
v 834.000000 370.000275 -1204.000000
v 648.000000 370.000244 -1018.999939
v 834.000000 370.000275 -1204.000000
v 648.000000 370.000275 -1204.000000
v 648.000000 370.000244 -1018.999939
v 834.000000 370.000488 -1760.000000
v 834.000000 370.000519 -1945.000000
v 648.000000 370.000488 -1760.000000
v 834.000000 370.000519 -1945.000000
v 648.000000 370.000519 -1945.000000
v 648.000000 370.000488 -1760.000000
v 648.000000 185.000275 -1019.000000
v 648.000000 185.000305 -1204.000000
v 463.000000 185.000275 -1019.000000
v 648.000000 185.000305 -1204.000000
v 463.000000 185.000305 -1204.000000
v 463.000000 185.000275 -1019.000000
v 648.000000 185.000488 -1760.000000
v 648.000000 185.000519 -1945.000000
v 463.000000 185.000488 -1760.000000
v 648.000000 185.000519 -1945.000000
v 463.000000 185.000519 -1945.000000
v 463.000000 185.000488 -1760.000000
v -3058.000000 185.000366 -1575.000000
v -3058.000000 185.000488 -1760.000000
v -3243.000000 185.000366 -1575.000000
v -3058.000000 185.000488 -1760.000000
v -3243.000000 185.000488 -1760.000000
v -3243.000000 185.000366 -1575.000000
v -3058.000000 185.000488 -1760.000000
v -3058.000000 185.000519 -1945.000000
v -3243.000000 185.000488 -1760.000000
v -3058.000000 185.000519 -1945.000000
v -3243.000000 185.000519 -1945.000000
v -3243.000000 185.000488 -1760.000000
v -3243.000000 370.000458 -1575.000000
v -3243.000000 370.000488 -1760.000000
v -3428.000000 370.000458 -1575.000000
v -3243.000000 370.000488 -1760.000000
v -3428.000000 370.000488 -1760.000000
v -3428.000000 370.000458 -1575.000000
v -3614.000000 370.000488 -1760.000000
v -3614.000000 370.000458 -1575.000000
v -3428.000000 370.000488 -1760.000000
v -3428.000000 370.000519 -1945.000000
v -3614.000000 370.000519 -1945.000000
v -3428.000000 370.000488 -1760.000000
v -3614.000000 370.000458 -1575.000000
v -3428.000000 370.000458 -1575.000000
v -3428.000000 370.000488 -1760.000000
v -3614.000000 370.000519 -1945.000000
v -3614.000000 370.000488 -1760.000000
v -3428.000000 370.000488 -1760.000000
v -3428.000000 370.000305 -1390.000000
v -3428.000000 370.000458 -1575.000000
v -3614.000000 370.000305 -1390.000000
v -3428.000000 370.000458 -1575.000000
v -3614.000000 370.000458 -1575.000000
v -3614.000000 370.000305 -1390.000000
v -3058.000000 0.000441 -1760.000000
v -3058.000000 185.000488 -1760.000000
v -3058.000000 0.000418 -1668.000000
v -3058.000000 185.000488 -1760.000000
v -3058.000000 185.000366 -1575.000000
v -3058.000000 0.000418 -1668.000000
v -3058.000000 185.000366 -1575.000000
v -3058.000000 0.000394 -1575.000000
v -3058.000000 0.000418 -1668.000000
vn -1.0000 -0.0000 -0.0000
vn 1.0000 -0.0000 -0.0000
vn -0.0000 -0.0000 1.0000
vn -0.0000 -0.0000 -1.0000
vn -0.0000 1.0000 -0.0000
vt 0.121094 0.933594
vt 0.000000 0.933594
vt 0.000000 0.871094
vt 0.121094 0.871094
vt 0.121094 0.933594
vt 0.000000 0.871094
vt 0.058594 0.996094
vt 0.000000 0.996094
vt 0.000000 0.933594
vt 0.000000 0.871094
vt 0.125000 0.871094
vt 0.000000 0.933594
vt 0.125000 0.871094
vt 0.125000 0.933594
vt 0.000000 0.933594
vt 0.121094 0.933594
vt 0.058594 0.996094
vt 0.000000 0.933594
vt 0.000000 0.875000
vt 0.121094 0.875000
vt 0.000000 0.933594
vt 0.121094 0.875000
vt 0.121094 0.933594
vt 0.000000 0.933594
vt 0.000000 0.875000
vt 0.121094 0.875000
vt 0.000000 0.933594
vt 0.121094 0.875000
vt 0.121094 0.933594
vt 0.000000 0.933594
vt 0.121094 0.933594
vt 0.058594 0.996094
vt 0.000000 0.933594
vt 0.000000 0.933594
vt 0.121094 0.933594
vt 0.000000 0.996094
vt 0.121094 0.933594
vt 0.121094 0.996094
vt 0.000000 0.996094
vt 0.000000 0.933594
vt 0.121094 0.933594
vt 0.000000 0.996094
vt 0.121094 0.933594
vt 0.121094 0.996094
vt 0.000000 0.996094
vt 0.000000 0.933594
vt 0.121094 0.933594
vt 0.000000 0.996094
vt 0.121094 0.933594
vt 0.121094 0.996094
vt 0.000000 0.996094
vt 0.000000 0.933594
vt 0.121094 0.933594
vt 0.000000 0.996094
vt 0.121094 0.933594
vt 0.121094 0.996094
vt 0.000000 0.996094
vt 0.000000 0.933594
vt 0.121094 0.933594
vt 0.000000 0.996094
vt 0.121094 0.933594
vt 0.121094 0.996094
vt 0.000000 0.996094
vt 0.000000 0.933594
vt 0.125000 0.933594
vt 0.058594 0.996094
vt 0.000000 0.996094
vt 0.000000 0.933594
vt 0.058594 0.996094
vt 0.000000 0.996094
vt 0.000000 0.933594
vt 0.058594 0.996094
vt 0.121094 0.933594
vt 0.121094 0.996094
vt 0.058594 0.996094
vt 0.121094 0.996094
vt 0.058594 0.996094
vt 0.121094 0.933594
vt 0.000000 0.996094
vt 0.000000 0.933594
vt 0.121094 0.996094
vt 0.000000 0.933594
vt 0.121094 0.933594
vt 0.121094 0.996094
vt 0.183594 0.750000
vt 0.183594 0.621094
vt 0.125000 0.621094
vt 0.125000 0.750000
vt 0.183594 0.750000
vt 0.125000 0.621094
vt 0.187500 0.750000
vt 0.152344 0.621094
vt 0.125000 0.750000
vt 0.183594 0.996094
vt 0.125000 0.996094
vt 0.125000 0.871094
vt 0.183594 0.871094
vt 0.183594 0.996094
vt 0.125000 0.871094
vt 0.183594 0.996094
vt 0.125000 0.996094
vt 0.125000 0.871094
vt 0.183594 0.871094
vt 0.183594 0.996094
vt 0.125000 0.871094
vt 0.125000 0.996094
vt 0.058594 0.996094
vt 0.125000 0.933594
vt 0.125000 0.871094
vt 0.187500 0.871094
vt 0.125000 0.996094
vt 0.187500 0.871094
vt 0.187500 0.996094
vt 0.125000 0.996094
vt 0.187500 0.871094
vt 0.125000 0.871094
vt 0.125000 0.996094
vt 0.187500 0.996094
vt 0.187500 0.871094
vt 0.125000 0.996094
vt 0.125000 0.621094
vt 0.125000 0.750000
vt 0.152344 0.621094
vt 0.121094 0.750000
vt 0.121094 0.625000
vt 0.156250 0.625000
vt 0.187500 0.625000
vt 0.187500 0.750000
vt 0.156250 0.625000
vt 0.250000 0.750000
vt 0.250000 0.621094
vt 0.183594 0.621094
vt 0.183594 0.750000
vt 0.250000 0.750000
vt 0.183594 0.621094
vt 0.250000 0.750000
vt 0.250000 0.621094
vt 0.183594 0.621094
vt 0.183594 0.750000
vt 0.250000 0.750000
vt 0.183594 0.621094
vt 0.250000 0.746094
vt 0.250000 0.621094
vt 0.183594 0.621094
vt 0.183594 0.746094
vt 0.250000 0.746094
vt 0.183594 0.621094
vt 0.246094 0.621094
vt 0.183594 0.621094
vt 0.183594 0.746094
vt 0.246094 0.746094
vt 0.246094 0.621094
vt 0.183594 0.746094
vt 0.250000 0.996094
vt 0.183594 0.996094
vt 0.183594 0.871094
vt 0.250000 0.871094
vt 0.250000 0.996094
vt 0.183594 0.871094
vt 0.250000 0.996094
vt 0.183594 0.996094
vt 0.183594 0.871094
vt 0.183594 0.996094
vt 0.218750 0.996094
vt 0.183594 0.871094
vt 0.250000 0.871094
vt 0.250000 0.996094
vt 0.183594 0.871094
vt 0.250000 0.996094
vt 0.183594 0.996094
vt 0.183594 0.871094
vt 0.250000 0.871094
vt 0.250000 0.996094
vt 0.183594 0.871094
vt 0.250000 0.875000
vt 0.214844 0.996094
vt 0.183594 0.875000
vt 0.250000 0.996094
vt 0.183594 0.996094
vt 0.183594 0.875000
vt 0.250000 0.875000
vt 0.250000 0.996094
vt 0.183594 0.875000
vt 0.250000 0.871094
vt 0.183594 0.871094
vt 0.183594 0.996094
vt 0.250000 0.996094
vt 0.250000 0.871094
vt 0.183594 0.996094
vt 0.250000 0.871094
vt 0.183594 0.871094
vt 0.183594 0.996094
vt 0.250000 0.996094
vt 0.250000 0.871094
vt 0.183594 0.996094
vt 0.183594 0.871094
vt 0.125000 0.871094
vt 0.183594 0.996094
vt 0.125000 0.871094
vt 0.125000 0.996094
vt 0.183594 0.996094
vt 0.183594 0.871094
vt 0.125000 0.871094
vt 0.183594 0.996094
vt 0.125000 0.871094
vt 0.125000 0.996094
vt 0.183594 0.996094
vt 0.183594 0.871094
vt 0.125000 0.871094
vt 0.183594 0.996094
vt 0.125000 0.871094
vt 0.125000 0.996094
vt 0.183594 0.996094
vt 0.125000 0.750000
vt 0.125000 0.621094
vt 0.187500 0.621094
vt 0.187500 0.750000
vt 0.125000 0.750000
vt 0.187500 0.621094
vt 0.250000 0.746094
vt 0.250000 0.621094
vt 0.187500 0.621094
vt 0.187500 0.746094
vt 0.250000 0.746094
vt 0.187500 0.621094
vt 0.246094 0.750000
vt 0.246094 0.621094
vt 0.187500 0.621094
vt 0.187500 0.750000
vt 0.246094 0.750000
vt 0.187500 0.621094
vt 0.246094 0.750000
vt 0.246094 0.621094
vt 0.187500 0.621094
vt 0.187500 0.750000
vt 0.246094 0.750000
vt 0.187500 0.621094
vt 0.121094 0.750000
vt 0.156250 0.625000
vt 0.187500 0.750000
vt 0.187500 0.621094
vt 0.152344 0.621094
vt 0.187500 0.750000
vt 0.187500 0.871094
vt 0.250000 0.871094
vt 0.187500 0.996094
vt 0.250000 0.871094
vt 0.250000 0.996094
vt 0.187500 0.996094
vt 0.246094 0.871094
vt 0.187500 0.871094
vt 0.187500 0.996094
vt 0.246094 0.996094
vt 0.246094 0.871094
vt 0.187500 0.996094
vt 0.183594 0.621094
vt 0.183594 0.750000
vt 0.214844 0.621094
vt 0.183594 0.750000
vt 0.250000 0.750000
vt 0.214844 0.621094
vt 0.183594 0.996094
vt 0.183594 0.871094
vt 0.214844 0.996094
vt 0.183594 0.871094
vt 0.250000 0.871094
vt 0.214844 0.996094
vt 0.183594 0.996094
vt 0.183594 0.875000
vt 0.214844 0.996094
vt 0.250000 0.875000
vt 0.250000 0.996094
vt 0.214844 0.996094
vt 0.250000 0.996094
vt 0.250000 0.871094
vt 0.218750 0.996094
vt 0.246094 0.871094
vt 0.183594 0.871094
vt 0.218750 0.996094
vt 0.183594 0.871094
vt 0.183594 0.996094
vt 0.218750 0.996094
vt 0.246094 0.996094
vt 0.246094 0.871094
vt 0.218750 0.996094
vt 0.312500 0.746094
vt 0.277344 0.875000
vt 0.246094 0.746094
vt 0.246094 0.746094
vt 0.312500 0.746094
vt 0.246094 0.875000
vt 0.312500 0.746094
vt 0.312500 0.875000
vt 0.246094 0.875000
vt 0.246094 0.746094
vt 0.312500 0.746094
vt 0.246094 0.875000
vt 0.312500 0.746094
vt 0.312500 0.875000
vt 0.246094 0.875000
vt 0.246094 0.746094
vt 0.312500 0.746094
vt 0.246094 0.875000
vt 0.312500 0.746094
vt 0.312500 0.875000
vt 0.246094 0.875000
vt 0.246094 0.746094
vt 0.308594 0.746094
vt 0.246094 0.875000
vt 0.308594 0.746094
vt 0.308594 0.875000
vt 0.246094 0.875000
vt 0.183594 0.750000
vt 0.183594 0.621094
vt 0.250000 0.621094
vt 0.250000 0.750000
vt 0.183594 0.750000
vt 0.250000 0.621094
vt 0.250000 0.621094
vt 0.214844 0.621094
vt 0.250000 0.750000
vt 0.250000 0.996094
vt 0.214844 0.996094
vt 0.250000 0.871094
vt 0.183594 0.871094
vt 0.218750 0.996094
vt 0.250000 0.871094
vt 0.246094 0.875000
vt 0.246094 0.746094
vt 0.277344 0.875000
vt 0.312500 0.746094
vt 0.312500 0.875000
vt 0.277344 0.875000
vt 0.308594 0.746094
vt 0.375000 0.746094
vt 0.308594 0.875000
vt 0.375000 0.746094
vt 0.375000 0.875000
vt 0.308594 0.875000
vt 0.246094 0.875000
vt 0.246094 0.746094
vt 0.312500 0.875000
vt 0.246094 0.746094
vt 0.312500 0.746094
vt 0.312500 0.875000
vt 0.246094 0.875000
vt 0.246094 0.746094
vt 0.312500 0.875000
vt 0.246094 0.746094
vt 0.312500 0.746094
vt 0.312500 0.875000
vt 0.246094 0.875000
vt 0.246094 0.746094
vt 0.312500 0.875000
vt 0.246094 0.746094
vt 0.312500 0.746094
vt 0.312500 0.875000
vt 0.246094 0.875000
vt 0.246094 0.746094
vt 0.312500 0.875000
vt 0.246094 0.746094
vt 0.312500 0.746094
vt 0.312500 0.875000
vt 0.246094 0.875000
vt 0.246094 0.746094
vt 0.312500 0.875000
vt 0.246094 0.746094
vt 0.312500 0.746094
vt 0.312500 0.875000
vt 0.246094 0.875000
vt 0.246094 0.746094
vt 0.312500 0.875000
vt 0.246094 0.746094
vt 0.312500 0.746094
vt 0.312500 0.875000
vt 0.246094 0.875000
vt 0.246094 0.746094
vt 0.312500 0.875000
vt 0.246094 0.746094
vt 0.312500 0.746094
vt 0.312500 0.875000
vt 0.246094 0.875000
vt 0.246094 0.746094
vt 0.312500 0.875000
vt 0.246094 0.746094
vt 0.312500 0.746094
vt 0.312500 0.875000
vt 0.246094 0.875000
vt 0.246094 0.746094
vt 0.312500 0.875000
vt 0.246094 0.875000
vt 0.246094 0.746094
vt 0.312500 0.875000
vt 0.246094 0.746094
vt 0.312500 0.746094
vt 0.312500 0.875000
vt 0.246094 0.746094
vt 0.312500 0.746094
vt 0.312500 0.875000
vt 0.246094 0.875000
vt 0.246094 0.746094
vt 0.312500 0.875000
vt 0.246094 0.746094
vt 0.312500 0.746094
vt 0.312500 0.875000
vt 0.308594 0.875000
vt 0.308594 0.746094
vt 0.339844 0.875000
vt 0.308594 0.746094
vt 0.375000 0.746094
vt 0.339844 0.875000
vt 0.375000 0.746094
vt 0.375000 0.875000
vt 0.339844 0.875000
s 1
usemtl material2
f 1/1/1 2/2/1 3/3/1
f 4/4/1 5/5/1 6/6/1
f 7/7/2 8/8/2 9/9/2
f 10/10/2 11/11/2 12/12/2
f 13/13/2 14/14/2 15/15/2
f 16/16/2 17/17/2 18/18/2
f 19/19/2 20/20/2 21/21/2
f 22/22/2 23/23/2 24/24/2
f 25/25/2 26/26/2 27/27/2
f 28/28/2 29/29/2 30/30/2
f 31/31/1 32/32/1 33/33/1
f 34/34/2 35/35/2 36/36/2
f 37/37/2 38/38/2 39/39/2
f 40/40/1 41/41/1 42/42/1
f 43/43/1 44/44/1 45/45/1
f 46/46/1 47/47/1 48/48/1
f 49/49/1 50/50/1 51/51/1
f 52/52/1 53/53/1 54/54/1
f 55/55/1 56/56/1 57/57/1
f 58/58/1 59/59/1 60/60/1
f 61/61/1 62/62/1 63/63/1
f 64/64/2 65/65/2 66/66/2
f 67/67/2 68/68/2 69/69/2
f 70/70/1 71/71/1 72/72/1
f 73/73/1 74/74/1 75/75/1
f 76/76/2 77/77/2 78/78/2
f 79/79/2 80/80/2 81/81/2
f 82/82/2 83/83/2 84/84/2
f 85/85/3 86/86/3 87/87/3
f 88/88/3 89/89/3 90/90/3
f 91/91/3 92/92/3 93/93/3
f 94/94/3 95/95/3 96/96/3
f 97/97/3 98/98/3 99/99/3
f 100/100/3 101/101/3 102/102/3
f 103/103/3 104/104/3 105/105/3
f 106/106/2 107/107/2 108/108/2
f 109/109/3 110/110/3 111/111/3
f 112/112/3 113/113/3 114/114/3
f 115/115/4 116/116/4 117/117/4
f 118/118/4 119/119/4 120/120/4
f 121/121/3 122/122/3 123/123/3
f 124/124/1 125/125/1 126/126/1
f 127/127/1 128/128/1 129/129/1
f 130/130/2 131/131/2 132/132/2
f 133/133/2 134/134/2 135/135/2
f 136/136/2 137/137/2 138/138/2
f 139/139/2 140/140/2 141/141/2
f 142/142/4 143/143/4 144/144/4
f 145/145/4 146/146/4 147/147/4
f 148/148/5 149/149/5 150/150/5
f 151/151/5 152/152/5 153/153/5
f 154/154/5 155/155/5 156/156/5
f 157/157/5 158/158/5 159/159/5
f 160/160/4 161/161/4 162/162/4
f 163/163/4 164/164/4 165/165/4
f 166/166/4 167/167/4 168/168/4
f 169/169/3 170/170/3 171/171/3
f 172/172/3 173/173/3 174/174/3
f 175/175/3 176/176/3 177/177/3
f 178/178/3 179/179/3 180/180/3
f 181/181/3 182/182/3 183/183/3
f 184/184/3 185/185/3 186/186/3
f 187/187/3 188/188/3 189/189/3
f 190/190/3 191/191/3 192/192/3
f 193/193/3 194/194/3 195/195/3
f 196/196/4 197/197/4 198/198/4
f 199/199/4 200/200/4 201/201/4
f 202/202/4 203/203/4 204/204/4
f 205/205/4 206/206/4 207/207/4
f 208/208/4 209/209/4 210/210/4
f 211/211/4 212/212/4 213/213/4
f 214/214/1 215/215/1 216/216/1
f 217/217/1 218/218/1 219/219/1
f 220/220/1 221/221/1 222/222/1
f 223/223/1 224/224/1 225/225/1
f 226/226/5 227/227/5 228/228/5
f 229/229/5 230/230/5 231/231/5
f 232/232/5 233/233/5 234/234/5
f 235/235/5 236/236/5 237/237/5
f 238/238/1 239/239/1 240/240/1
f 241/241/3 242/242/3 243/243/3
f 244/244/4 245/245/4 246/246/4
f 247/247/4 248/248/4 249/249/4
f 250/250/4 251/251/4 252/252/4
f 253/253/4 254/254/4 255/255/4
f 256/256/3 257/257/3 258/258/3
f 259/259/3 260/260/3 261/261/3
f 262/262/4 263/263/4 264/264/4
f 265/265/4 266/266/4 267/267/4
f 268/268/3 269/269/3 270/270/3
f 271/271/3 272/272/3 273/273/3
f 274/274/4 275/275/4 276/276/4
f 277/277/4 278/278/4 279/279/4
f 280/280/4 281/281/4 282/282/4
f 283/283/4 284/284/4 285/285/4
f 286/286/1 287/287/1 288/288/1
f 289/289/1 290/290/1 291/291/1
f 292/292/1 293/293/1 294/294/1
f 295/295/1 296/296/1 297/297/1
f 298/298/1 299/299/1 300/300/1
f 301/301/1 302/302/1 303/303/1
f 304/304/1 305/305/1 306/306/1
f 307/307/2 308/308/2 309/309/2
f 310/310/2 311/311/2 312/312/2
f 313/313/2 314/314/2 315/315/2
f 316/316/2 317/317/2 318/318/2
f 319/319/3 320/320/3 321/321/3
f 322/322/4 323/323/4 324/324/4
f 325/325/4 326/326/4 327/327/4
f 328/328/1 329/329/1 330/330/1
f 331/331/1 332/332/1 333/333/1
f 334/334/2 335/335/2 336/336/2
f 337/337/2 338/338/2 339/339/2
f 340/340/5 341/341/5 342/342/5
f 343/343/5 344/344/5 345/345/5
f 346/346/5 347/347/5 348/348/5
f 349/349/5 350/350/5 351/351/5
f 352/352/5 353/353/5 354/354/5
f 355/355/5 356/356/5 357/357/5
f 358/358/5 359/359/5 360/360/5
f 361/361/5 362/362/5 363/363/5
f 364/364/5 365/365/5 366/366/5
f 367/367/5 368/368/5 369/369/5
f 370/370/5 371/371/5 372/372/5
f 373/373/5 374/374/5 375/375/5
f 376/376/5 377/377/5 378/378/5
f 379/379/5 380/380/5 381/381/5
f 382/382/5 383/383/5 384/384/5
f 385/385/5 386/386/5 387/387/5
f 388/388/5 389/389/5 390/390/5
f 391/391/5 392/392/5 393/393/5
f 394/394/5 395/395/5 396/396/5
f 397/397/5 398/398/5 399/399/5
f 400/400/5 401/401/5 402/402/5
f 403/403/5 404/404/5 405/405/5
f 406/406/2 407/407/2 408/408/2
f 409/409/2 410/410/2 411/411/2
f 412/412/2 413/413/2 414/414/2
